{
  "getstudent": {
    "efternamn": "USER",
    "personnummer": "0123456789",
    "fornamn": "MOCK",
    "betalningar": [
      {
        "sektionskod": "D",
        "betaldatum": "2013-08-26",
        "termin": "VT17",
        "betald": true,
        "kurskod": ""
      }
    ]
  }
}
